{
    "main_script":"S2DSConfig.js",
    "icon":"",
    "width": 1280,
    "height": 1440,
    "resize": "free",
    "animation" : true,
    "dependencies" : [],
    "load":{},
    "title": "S2DSConfig",
    "description": "SAGE2 application DS",
    "keywords": ["sage2","ds"],
    "author": "",
    "license": "SAGE2-Software-License"
}